\headcommand {\slideentry {0}{0}{1}{1/1}{}{0}}
\headcommand {\beamer@framepages {1}{1}}
\headcommand {\beamer@sectionpages {1}{1}}
\headcommand {\beamer@subsectionpages {1}{1}}
\headcommand {\sectionentry {1}{Loops, Functions, and Recursion}{2}{Loops, Functions, and Recursion}{0}}
\headcommand {\slideentry {1}{0}{1}{2/2}{}{0}}
\headcommand {\beamer@framepages {2}{2}}
\headcommand {\slideentry {1}{0}{2}{3/3}{}{0}}
\headcommand {\beamer@framepages {3}{3}}
\headcommand {\slideentry {1}{0}{3}{4/4}{}{0}}
\headcommand {\beamer@framepages {4}{4}}
\headcommand {\slideentry {1}{0}{4}{5/6}{}{0}}
\headcommand {\beamer@framepages {5}{6}}
\headcommand {\slideentry {1}{0}{5}{7/8}{}{0}}
\headcommand {\beamer@framepages {7}{8}}
\headcommand {\slideentry {1}{0}{6}{9/9}{}{0}}
\headcommand {\beamer@framepages {9}{9}}
\headcommand {\slideentry {1}{0}{7}{10/10}{}{0}}
\headcommand {\beamer@framepages {10}{10}}
\headcommand {\beamer@partpages {1}{10}}
\headcommand {\beamer@subsectionpages {2}{10}}
\headcommand {\beamer@sectionpages {2}{10}}
\headcommand {\beamer@documentpages {10}}
\headcommand {\gdef \inserttotalframenumber {6}}
